\relax 
\pgfsyspdfmark {pgfid2}{19579138}{27690495}
\pgfsyspdfmark {pgfid1}{4736286}{50644704}
\@input{./Company/Description.aux}
\@input{./Jobs/SoftwareDevelopment.aux}
\@input{./Jobs/ComputerScience.aux}
