\relax 
\pgfsyspdfmark {pgfid1}{4736286}{50644704}
\@input{./Company/Description.aux}
\pgfsyspdfmark {pgfid3}{19579138}{27690495}
\pgfsyspdfmark {pgfid2}{4736286}{50644704}
\@input{./Jobs/SoftwareDevelopment.aux}
\pgfsyspdfmark {pgfid5}{19579138}{27690495}
\pgfsyspdfmark {pgfid4}{4736286}{50644704}
\pgfsyspdfmark {pgfid7}{19579138}{27690495}
\pgfsyspdfmark {pgfid6}{4736286}{50644704}
\pgfsyspdfmark {pgfid9}{19579138}{27690495}
\pgfsyspdfmark {pgfid8}{4736286}{50644704}
\@input{./Jobs/ComputerScience.aux}
\pgfsyspdfmark {pgfid11}{19579138}{27690495}
\pgfsyspdfmark {pgfid10}{4736286}{50644704}
\pgfsyspdfmark {pgfid13}{19579138}{27690495}
\pgfsyspdfmark {pgfid12}{4736286}{50644704}
\pgfsyspdfmark {pgfid15}{19579138}{27690495}
\pgfsyspdfmark {pgfid14}{4736286}{50644704}
\pgfsyspdfmark {pgfid17}{19579138}{27690495}
\pgfsyspdfmark {pgfid16}{4736286}{50644704}
\pgfsyspdfmark {pgfid19}{19579138}{27690495}
\pgfsyspdfmark {pgfid18}{4736286}{50644704}
\pgfsyspdfmark {pgfid21}{19579138}{27690495}
\pgfsyspdfmark {pgfid20}{4736286}{50644704}
\pgfsyspdfmark {pgfid23}{19579138}{27690495}
\pgfsyspdfmark {pgfid22}{4736286}{50644704}
\pgfsyspdfmark {pgfid25}{19579138}{27690495}
\pgfsyspdfmark {pgfid24}{4736286}{50644704}
\@input{./Conclusion/Conclusion.aux}
\pgfsyspdfmark {pgfid27}{19579138}{27690495}
\pgfsyspdfmark {pgfid26}{4736286}{50644704}
\bibdata{bibliography}
\pgfsyspdfmark {pgfid29}{19579138}{27690495}
\pgfsyspdfmark {pgfid28}{4736286}{50644704}
\@writefile{toc}{\contentsline {chapter}{References}{14}}
\bibstyle{apacite}
\pgfsyspdfmark {pgfid31}{19579138}{27690495}
\pgfsyspdfmark {pgfid30}{4736286}{50644704}
